Essentials of Data Analytics - Jcomp
…
Selecting suitable rows

winterRain=agriculture_data%>%
  filter(mon==6 | mon==7 | mon==8 | mon==9 | mon==10)

DatabyState=agriculture_data%>%
  group_by(year,State)%>%
  summarise(avgRain=mean(Rainfall), avgLight=mean(Sunshine))

## `summarise()` regrouping output by 'year' (override with `.groups` argument)

DatabyState

## # A tibble: 61 x 4
## # Groups:   year [11]
##     year State              avgRain avgLight
##    <dbl> <chr>                <dbl>    <dbl>
##  1  2007 New South Wales       3.22     8.09
##  2  2008 New South Wales       2.22     7.61
##  3  2008 Northern Territory    2.00     8.00
##  4  2008 Queensland            4.01     8.26
##  5  2008 South Australia       1.84     7.50
##  6  2008 Victoria              1.91     6.92
##  7  2008 Western Australia     1.95     8.72
##  8  2009 New South Wales       2.22     7.76
##  9  2009 Northern Territory    2.35     8.15
## 10  2009 Queensland            4.48     8.13
## # ... with 51 more rows
…
How Rainfall Effects summer rows

winterRain=agriculture_data%>%
  filter(mon==12 | mon==1 | mon==2 | mon==3 | mon==4)

DatabyState=agriculture_data%>%
  group_by(year,State)%>%
  summarise(avgRain=mean(Rainfall), avgLight=mean(Sunshine))

## `summarise()` regrouping output by 'year' (override with `.groups` argument)

DatabyState

## # A tibble: 61 x 4
## # Groups:   year [11]
##     year State              avgRain avgLight
##    <dbl> <chr>                <dbl>    <dbl>
##  1  2007 New South Wales       3.22     8.09
##  2  2008 New South Wales       2.22     7.61
##  3  2008 Northern Territory    2.00     8.00
##  4  2008 Queensland            4.01     8.26
##  5  2008 South Australia       1.84     7.50
##  6  2008 Victoria              1.91     6.92
##  7  2008 Western Australia     1.95     8.72
##  8  2009 New South Wales       2.22     7.76
##  9  2009 Northern Territory    2.35     8.15
## 10  2009 Queensland            4.48     8.13
## # ... with 51 more rows
…
